       IDENTIFICATION DIVISION.
       PROGRAM-ID. HELLO3.
      * Comment: This program Displays a number of text strings
       ENVIRONMENT DIViSION.
       DATA DIVISION.
       PROCEDURE DIVISION.
           DISPLAY "Name:".
           DISPLAY "       Martin Mullins".
           DISPLAY " ".
           DISPLAY "Address:"
           DISPLAY "       "61" Brigham Tavern Lane".
           DISPLAY "       Coventry" "," "CT".
           DISPLAY " ".
           DISPLAY "Hours Worked:".
           DISPLAY "       " 23.
           DISPLAY " ".
           DISPLAY "Gross Pay:".
           DISPLAY "       $" 23.47 "USD".
           GOBACK.
