  STMT NO. MESSAGE
         3 IEFC001I PROCEDURE ELAXFCOC WAS EXPANDED USING SYSTEM LIBRARY SVTSC.PROCLIB
        31 IEFC001I PROCEDURE ELAXFLNK WAS EXPANDED USING SYSTEM LIBRARY SVTSC.PROCLIB
        41 IEFC001I PROCEDURE ELAXFGO WAS EXPANDED USING SYSTEM LIBRARY SVTSC.PROCLIB
 ICH70001I Z51417   LAST ACCESS AT 15:19:37 ON SATURDAY, JUNE 20, 2020
 IEFA111I Z51417G IS USING THE FOLLOWING JOB RELATED SETTINGS:
          SWA=ABOVE,TIOT SIZE=32K,DSENQSHR=DISALLOW,GDGBIAS=JOB
 IEF236I ALLOC. FOR Z51417G COBOL STP0000
 IEF237I 185A ALLOCATED TO STEPLIB
 IEF237I 0BD0 ALLOCATED TO
 IEF237I 0D30 ALLOCATED TO SYSIN
 IEF237I 0D30 ALLOCATED TO SYSLIN
 IEF237I 0D31 ALLOCATED TO SYSLIB
 IEF237I DMY  ALLOCATED TO SYSADATA
 IEF237I JES2 ALLOCATED TO SYSPRINT
 IGD100I 0D32 ALLOCATED TO DDNAME SYSMDECK DATACLAS (        )
 IGD100I 0D31 ALLOCATED TO DDNAME SYSUT1   DATACLAS (        )
 IGD100I 0D30 ALLOCATED TO DDNAME SYSUT2   DATACLAS (        )
 IGD100I 0D33 ALLOCATED TO DDNAME SYSUT3   DATACLAS (        )
 IGD100I 0D33 ALLOCATED TO DDNAME SYSUT4   DATACLAS (        )
 IGD100I 0D30 ALLOCATED TO DDNAME SYSUT5   DATACLAS (        )
 IGD100I 0D31 ALLOCATED TO DDNAME SYSUT6   DATACLAS (        )
 IGD100I 0D33 ALLOCATED TO DDNAME SYSUT7   DATACLAS (        )
 IGD100I 0D32 ALLOCATED TO DDNAME SYSUT8   DATACLAS (        )
 IGD100I 0D30 ALLOCATED TO DDNAME SYSUT9   DATACLAS (        )
 IGD100I 0D32 ALLOCATED TO DDNAME SYSUT10  DATACLAS (        )
 IGD100I 0D30 ALLOCATED TO DDNAME SYSUT11  DATACLAS (        )
 IGD100I 0D33 ALLOCATED TO DDNAME SYSUT12  DATACLAS (        )
 IGD100I 0D30 ALLOCATED TO DDNAME SYSUT13  DATACLAS (        )
 IGD100I 0D30 ALLOCATED TO DDNAME SYSUT14  DATACLAS (        )
 IGD100I 0D32 ALLOCATED TO DDNAME SYSUT15  DATACLAS (        )
 IEF237I 0D33 ALLOCATED TO SYSDEBUG
 IEF237I DMY  ALLOCATED TO SYSXMLSD
 IGD100I 0D30 ALLOCATED TO DDNAME SYS00002 DATACLAS (        )
 IGD100I 0D31 ALLOCATED TO DDNAME SYS00004 DATACLAS (        )
 IGD100I 0D33 ALLOCATED TO DDNAME SYS00006 DATACLAS (        )
 IGD100I 0D31 ALLOCATED TO DDNAME SYS00008 DATACLAS (        )
 IEF285I   Z51417.DT062020.TT152235.M0000004.C0000000   CATALOGED
 IEF285I   VOL SER NOS= VPWRKA.
 IEF285I   Z51417.DT062020.TT152236.M0000044.C0000001   CATALOGED
 IEF285I   VOL SER NOS= VPWRKB.
 IEF285I   Z51417.DT062020.TT152237.M0000081.C0000002   CATALOGED
 IEF285I   VOL SER NOS= VPWRKD.
 IEF237I 0D30 ALLOCATED TO SYS00009
 IEF237I 0D31 ALLOCATED TO SYS00010
 IEF237I 0D33 ALLOCATED TO SYS00011
 IEF285I   Z51417.DT062020.TT152235.M0000004.C0000000   KEPT
 IEF285I   VOL SER NOS= VPWRKA.
 IEF285I   Z51417.DT062020.TT152236.M0000044.C0000001   KEPT
 IEF285I   VOL SER NOS= VPWRKB.
 IEF285I   Z51417.DT062020.TT152237.M0000081.C0000002   KEPT
 IEF285I   VOL SER NOS= VPWRKD.
 IEF285I   Z51417.DT062020.TT152237.M0000119.C0000003   CATALOGED
 IEF285I   VOL SER NOS= VPWRKB.
 IEF237I 0D30 ALLOCATED TO SYS00012
 IEF285I   Z51417.DT062020.TT152235.M0000004.C0000000   UNCATALOGED
 IEF285I   VOL SER NOS= VPWRKA.
 IEF285I   Z51417.DT062020.TT152235.M0000004.C0000000   DELETED
 IEF285I   VOL SER NOS= VPWRKA.
 IEF237I 0D31 ALLOCATED TO SYS00013
 IEF285I   Z51417.DT062020.TT152236.M0000044.C0000001   UNCATALOGED
 IEF285I   VOL SER NOS= VPWRKB.
 IEF285I   Z51417.DT062020.TT152236.M0000044.C0000001   DELETED
 IEF285I   VOL SER NOS= VPWRKB.
 IEF237I 0D33 ALLOCATED TO SYS00014
 IEF285I   Z51417.DT062020.TT152237.M0000081.C0000002   UNCATALOGED
 IEF285I   VOL SER NOS= VPWRKD.
 IEF285I   Z51417.DT062020.TT152237.M0000081.C0000002   DELETED
 IEF285I   VOL SER NOS= VPWRKD.
 IEF237I 0D31 ALLOCATED TO SYS00015
 IEF285I   Z51417.DT062020.TT152237.M0000119.C0000003   UNCATALOGED
 IEF285I   VOL SER NOS= VPWRKB.
 IEF285I   Z51417.DT062020.TT152237.M0000119.C0000003   DELETED
 IEF285I   VOL SER NOS= VPWRKB.
 IEF142I Z51417G COBOL STP0000 - STEP WAS EXECUTED - COND CODE 0000
 IEF285I   IGY420.SIGYCOMP                              KEPT
 IEF285I   VOL SER NOS= VTIGYG.
 IEF285I   FELE00.SFELLOAD                              KEPT
 IEF285I   VOL SER NOS= VTFELB.
 IEF285I   Z51417.LEARN.COBOL                           KEPT
 IEF285I   VOL SER NOS= VPWRKA.
 IEF285I   Z51417.COBOBJS.OBJ                           KEPT
 IEF285I   VOL SER NOS= VPWRKA.
 IEF285I   Z51417.COBOL.COPYLIB                         KEPT
 IEF285I   VOL SER NOS= VPWRKB.
 IEF285I   Z51417.Z51417G.JOB00506.D0000103.?           SYSOUT
 IEF285I   SYS20172.T152232.RA000.Z51417G.R0141297      DELETED
 IEF285I   VOL SER NOS= VPWRKC.
 IEF285I   SYS20172.T152232.RA000.Z51417G.R0141298      DELETED
 IEF285I   VOL SER NOS= VPWRKB.
 IEF285I   SYS20172.T152232.RA000.Z51417G.R0141299      DELETED
 IEF285I   VOL SER NOS= VPWRKA.
 IEF285I   SYS20172.T152232.RA000.Z51417G.R0141300      DELETED
 IEF285I   VOL SER NOS= VPWRKD.
 IEF285I   SYS20172.T152232.RA000.Z51417G.R0141301      DELETED
 IEF285I   VOL SER NOS= VPWRKD.
 IEF285I   SYS20172.T152232.RA000.Z51417G.R0141302      DELETED
 IEF285I   VOL SER NOS= VPWRKA.
 IEF285I   SYS20172.T152232.RA000.Z51417G.R0141303      DELETED
 IEF285I   VOL SER NOS= VPWRKB.
 IEF285I   SYS20172.T152232.RA000.Z51417G.R0141304      DELETED
 IEF285I   VOL SER NOS= VPWRKD.
 IEF285I   SYS20172.T152232.RA000.Z51417G.R0141305      DELETED
 IEF285I   VOL SER NOS= VPWRKC.
 IEF285I   SYS20172.T152232.RA000.Z51417G.R0141306      DELETED
 IEF285I   VOL SER NOS= VPWRKA.
 IEF285I   SYS20172.T152232.RA000.Z51417G.R0141307      DELETED
 IEF285I   VOL SER NOS= VPWRKC.
 IEF285I   SYS20172.T152232.RA000.Z51417G.R0141308      DELETED
 IEF285I   VOL SER NOS= VPWRKA.
 IEF285I   SYS20172.T152232.RA000.Z51417G.R0141309      DELETED
 IEF285I   VOL SER NOS= VPWRKD.
 IEF285I   SYS20172.T152232.RA000.Z51417G.R0141310      DELETED
 IEF285I   VOL SER NOS= VPWRKA.
 IEF285I   SYS20172.T152232.RA000.Z51417G.R0141311      DELETED
 IEF285I   VOL SER NOS= VPWRKA.
 IEF285I   SYS20172.T152232.RA000.Z51417G.R0141312      DELETED
 IEF285I   VOL SER NOS= VPWRKC.
 IEF285I   Z51417.LEARN.DEBUG                           KEPT
 IEF285I   VOL SER NOS= VPWRKD.
 IEF373I STEP/COBOL   /START 2020172.1522
 IEF032I STEP/COBOL   /STOP  2020172.1522
         CPU:     0 HR  00 MIN  00.04 SEC    SRB:     0 HR  00 MIN  00.00 SEC
         VIRT:  7904K  SYS:   296K  EXT:   147412K  SYS:    11820K
         ATB- REAL:                  1096K  SLOTS:                     0K
              VIRT- ALLOC:      19M SHRD:       0M
 IEF236I ALLOC. FOR Z51417G LINK LKED
 IEF237I 1001 ALLOCATED TO SYSLIB
 IEF237I 0D30 ALLOCATED TO
 IEF237I JES2 ALLOCATED TO SYSLIN
 IEF237I 0D30 ALLOCATED TO SYSLMOD
 IEF237I JES2 ALLOCATED TO SYSPRINT
 IGD100I 0D31 ALLOCATED TO DDNAME SYSUT1   DATACLAS (        )
 IEF237I 0D30 ALLOCATED TO OBJ0000
 IEF142I Z51417G LINK LKED - STEP WAS EXECUTED - COND CODE 0000
 IEF285I   CEE.SCEELKED                                 KEPT
 IEF285I   VOL SER NOS= VTMVSC.
 IEF285I   Z51417.LEARN.LOAD                            KEPT
 IEF285I   VOL SER NOS= VPWRKA.
 IEF285I   Z51417.Z51417G.JOB00506.D0000101.?           SYSIN
 IEF285I   Z51417.LEARN.LOAD                            KEPT
 IEF285I   VOL SER NOS= VPWRKA.
 IEF285I   Z51417.Z51417G.JOB00506.D0000104.?           SYSOUT
 IEF285I   SYS20172.T152232.RA000.Z51417G.R0141313      DELETED
 IEF285I   VOL SER NOS= VPWRKB.
 IEF285I   Z51417.COBOBJS.OBJ                           KEPT
 IEF285I   VOL SER NOS= VPWRKA.
 IEF373I STEP/LINK    /START 2020172.1522
 IEF032I STEP/LINK    /STOP  2020172.1522
         CPU:     0 HR  00 MIN  00.01 SEC    SRB:     0 HR  00 MIN  00.00 SEC
         VIRT:    92K  SYS:   256K  EXT:     1768K  SYS:    11744K
         ATB- REAL:                  1104K  SLOTS:                     0K
              VIRT- ALLOC:      20M SHRD:       0M
 IEF236I ALLOC. FOR Z51417G RUN GO
 IEF237I 1001 ALLOCATED TO STEPLIB
 IEF237I 0BD0 ALLOCATED TO
 IEF237I 0D30 ALLOCATED TO
 IEF237I JES2 ALLOCATED TO SYSPRINT
 IEF237I 0D30 ALLOCATED TO PAYROLL
 IEF237I JES2 ALLOCATED TO PAYCHECK
 IEF237I 0D31 ALLOCATED TO ACCTREC
 IEF237I 0D31 ALLOCATED TO INFILE
 IEF237I 0D32 ALLOCATED TO OUTFILE
 IEF237I 0D33 ALLOCATED TO INVALS
 IEF237I 0D33 ALLOCATED TO FAVIN
 IEF237I JES2 ALLOCATED TO PRTLINE
 IEF237I 0D33 ALLOCATED TO B37
 IEF237I 0D33 ALLOCATED TO CLAIM
 IEF237I JES2 ALLOCATED TO RFPIN
 IEF237I JES2 ALLOCATED TO PROPOSAL
 IEF237I JES2 ALLOCATED TO CLAIMRPT
 IEF237I JES2 ALLOCATED TO SYSOUT
 IEF285I   Z51417.Z51417G.JOB00506.D0000110.?           SYSOUT
 IEF142I Z51417G RUN GO - STEP WAS EXECUTED - COND CODE 0000
 IEF285I   CEE.SCEERUN                                  KEPT
 IEF285I   VOL SER NOS= VTMVSC.
 IEF285I   FELE00.SFELLOAD                              KEPT
 IEF285I   VOL SER NOS= VTFELB.
 IEF285I   Z51417.LEARN.LOAD                            KEPT
 IEF285I   VOL SER NOS= VPWRKA.
 IEF285I   Z51417.Z51417G.JOB00506.D0000105.?           SYSOUT
 IEF285I   Z51417.LEARN.PAYROL01                        KEPT
 IEF285I   VOL SER NOS= VPWRKA.
 IEF285I   Z51417.Z51417G.JOB00506.D0000106.?           SYSOUT
 IEF285I   Z51417.LEARN.ACCT.DATA                       KEPT
 IEF285I   VOL SER NOS= VPWRKB.
 IEF285I   Z51417.LEARN.ACCT.DATA                       KEPT
 IEF285I   VOL SER NOS= VPWRKB.
 IEF285I   Z51417.LEARN.OUTFILE                         KEPT
 IEF285I   VOL SER NOS= VPWRKC.
 IEF285I   Z51417.LEARN.INVALS                          KEPT
 IEF285I   VOL SER NOS= VPWRKD.
 IEF285I   Z51417.LEARN.FAVIN                           KEPT
 IEF285I   VOL SER NOS= VPWRKD.
 IEF285I   Z51417.Z51417G.JOB00506.D0000107.?           SYSOUT
 IEF285I   Z51417.LEARN.B37                             KEPT
 IEF285I   VOL SER NOS= VPWRKD.
 IEF285I   Z51417.LEARN.INSCLAIM                        KEPT
 IEF285I   VOL SER NOS= VPWRKD.
 IEF285I   Z51417.Z51417G.JOB00506.D0000102.?           SYSIN
 IEF285I   Z51417.Z51417G.JOB00506.D0000108.?           SYSOUT
 IEF285I   Z51417.Z51417G.JOB00506.D0000109.?           SYSOUT
 IEF373I STEP/RUN     /START 2020172.1522
 IEF032I STEP/RUN     /STOP  2020172.1522
         CPU:     0 HR  00 MIN  00.00 SEC    SRB:     0 HR  00 MIN  00.00 SEC
         VIRT:    88K  SYS:   336K  EXT:     2972K  SYS:    11824K
         ATB- REAL:                  1096K  SLOTS:                     0K
              VIRT- ALLOC:      19M SHRD:       0M
 IEF375I  JOB/Z51417G /START 2020172.1522
 IEF033I  JOB/Z51417G /STOP  2020172.1522
         CPU:     0 HR  00 MIN  00.05 SEC    SRB:     0 HR  00 MIN  00.00 SEC
