1PP 5655-EC6 IBM Enterprise COBOL for z/OS  6.3.0 P200512                 Date 07/29/2020  Time 17:22:23   Page     1
0Invocation parameters:
  EXIT(ADEXIT(ELAXMGUX)),ADATA,TEST,LIST,FLAG(I,I)
0Options in effect:
    ADATA
    ADV
    AFP(NOVOLATILE)
    QUOTE
    ARCH(8)
    ARITH(COMPAT)
  NOAWO
  NOBLOCK0
    BUFSIZE(4096)
  NOCICS
    CODEPAGE(1140)
  NOCOMPILE(S)
  NOCOPYLOC
  NOCOPYRIGHT
  NOCURRENCY
    DATA(31)
    DBCS
  NODECK
  NODEFINE
  NODIAGTRUNC
    DISPSIGN(COMPAT)
  NODLL
  NODUMP
  NODYNAM
    EXIT(NOINEXIT,NOPRTEXIT,NOLIBEXIT,ADEXIT(ELAXMGUX),NOMSGEXIT)
  NOEXPORTALL
  NOFASTSRT
    FLAG(I,I)
  NOFLAGSTD
    HGPR(PRESERVE)
  NOINITCHECK
  NOINITIAL
    INLINE
    INTDATE(ANSI)
    LANGUAGE(EN)
    LINECOUNT(60)
    LIST
    LP(32)
  NOMAP
    MAXPCF(100000)
  NOMDECK
  NONAME
    NSYMBOL(NATIONAL)
  NONUMBER
  NONUMCHECK
    NUMPROC(NOPFD)
    OBJECT
  NOOFFSET
    OPTIMIZE(0)
    OUTDD(SYSOUT)
  NOPARMCHECK
    PGMNAME(COMPAT)
    QUALIFY(COMPAT)
    RENT
1PP 5655-EC6 IBM Enterprise COBOL for z/OS  6.3.0 P200512                 Date 07/29/2020  Time 17:22:23   Page     2
0   RMODE(AUTO)
  NORULES
  NOSERVICE
    SEQUENCE
    SOURCE
    SPACE(1)
  NOSQL
    SQLCCSID
  NOSQLIMS
  NOSSRANGE
  NOSTGOPT
    SUPPRESS
  NOTERM
    TEST(NOEJPD,DWARF,SOURCE,NOSEPARATE)
  NOTHREAD
    TRUNC(STD)
  NOVBREF
    VLR(STANDARD)
    VSAMOPENFS(COMPAT)
  NOWORD
    XMLPARSE(XMLSS)
    XREF(FULL)
    ZONEDATA(PFD)
    ZWB
1PP 5655-EC6 IBM Enterprise COBOL for z/OS  6.3.0 P200512       TABLES00  Date 07/29/2020  Time 17:22:23   Page     3
   LineID  PL SL  ----+-*A-1-B--+----2----+----3----+----4----+----5----+----6----+----7-|--+----8 Map and Cross Reference
0/* TABLES00
   000001                IDENTIFICATION DIVISION.
   000002                PROGRAM-ID.   TABLES00.
   000003               *
   000004               * ***************************************************
   000005               * **************************************************
   000006                DATA DIVISION.
   000007                WORKING-STORAGE SECTION.
   000008                01 WEEK-DAY-VALUES.
   000009                    05 FILLER PIC X(09) VALUE "SUNDAY   ".
   000010                    05 FILLER PIC X(09) VALUE "MONDAY   ".
   000011                    05 FILLER PIC X(09) VALUE "TUESDAY  ".
   000012                    05 FILLER PIC X(09) VALUE "WEDNESDAY".
   000013                    05 FILLER PIC X(09) VALUE "THURSDAY ".
   000014                    05 FILLER PIC X(09) VALUE "FRIDAY   ".
   000015                    05 FILLER PIC X(09) VALUE "SATUDAY  ".
   000016                01 Weekday-Table REDEFINES WEEK-DAY-VALUES.                               8
   000017                    05 WS-Day-of-Week PIC X(09) OCCURS 7 TIMES
   000018                       INDEXED BY WS-DW-ITER.
   000019                01 WEEKEND-DAY-ITER   PIC 9 VALUE 0.
   000020                01 WEEKEND-SEARCH     PIC X(09) VALUE "FRIDAY".
   000021                PROCEDURE DIVISION.
   000022                000-TOP-LEVEL.
   000023                    PERFORM VARYING WEEKEND-DAY-ITER FROM 1 BY 1                          19
   000024                       UNTIL WEEKEND-DAY-ITER > 7                                         19
   000025      1                   DISPLAY WS-Day-of-Week (WEEKEND-DAY-ITER)                       17 19
   000026                    END-PERFORM.
   000027                    PERFORM VARYING WS-DW-ITER FROM 1 BY 1                                18
   000028                       UNTIL WS-DW-ITER > 7                                               18
   000029      1                   DISPLAY WS-Day-of-Week (WS-DW-ITER)                             17 18
   000030                    END-PERFORM.
   000031                    SET WS-DW-ITER TO 1.                                                  18
   000032                    SEARCH WS-Day-of-Week                                                 17
   000033      1                AT END DISPLAY "Day not found"
   000034                       WHEN WS-Day-of-Week (WS-DW-ITER) = WEEKEND-SEARCH                  17 18 20
   000035      1                   SET WEEKEND-DAY-ITER TO WS-DW-ITER                              19 18
   000036      1                   DISPLAY WEEKEND-DAY-ITER                                        19
   000037                    END-SEARCH.
   000038                    GOBACK.
   000039
 */ TABLES00
1PP 5655-EC6 IBM Enterprise COBOL for z/OS  6.3.0 P200512       TABLES00  Date 07/29/2020  Time 17:22:23   Page     4
0An "M" preceding a data-name reference indicates that the data-name is modified by this reference.

  Defined   Cross-reference of data names   References

        8   WEEK-DAY-VALUES. . . . . . . .  16
       16   WEEKDAY-TABLE
       19   WEEKEND-DAY-ITER . . . . . . .  M23 24 25 M35 36
       20   WEEKEND-SEARCH . . . . . . . .  34
       17   WS-DAY-OF-WEEK . . . . . . . .  25 29 32 34
       18   WS-DW-ITER . . . . . . . . . .  M27 28 29 M31 34 35
1PP 5655-EC6 IBM Enterprise COBOL for z/OS  6.3.0 P200512       TABLES00  Date 07/29/2020  Time 17:22:23   Page     5
0Context usage is indicated by the letter preceding a procedure-name reference.
 These letters and their meanings are:
     A = ALTER (procedure-name)
     D = GO TO (procedure-name) DEPENDING ON
     E = End of range of (PERFORM) through (procedure-name)
     G = GO TO (procedure-name)
     P = PERFORM (procedure-name)
     T = (ALTER) TO PROCEED TO (procedure-name)
     U = USE FOR DEBUGGING (procedure-name)

  Defined   Cross-reference of procedures   References

       22   000-TOP-LEVEL
1PP 5655-EC6 IBM Enterprise COBOL for z/OS  6.3.0 P200512       TABLES00  Date 07/29/2020  Time 17:22:23   Page     6
0 Defined   Cross-reference of programs     References

        2   TABLES00
1PP 5655-EC6 IBM Enterprise COBOL for z/OS  6.3.0 P200512       TABLES00  Date 07/29/2020  Time 17:22:23   Page     7
0 000002:         PROGRAM-ID.   TABLES00.
     000000                     000002            PROC    TABLES00
     000000  47F0 F014          000002            BC      R15,20(,R15)          #  Skip over constant area
     000004  01C3 C5C5          000002            DC      X'01C3C5C5'           #  Eyecatcher: CEE
     000008  0000 01B0          000002            DC      X'000001B0'           #  Stack Size
     00000C  0000 07D0          000002            DC      X'000007D0'           #  Offset to PPA1
     000010  47F0 F001          000002            BC      R15,1(,R15)           #  Wrong Entry Point: cause exception
     000014                     000002  L0210:    EQU     *
     000014  90EC D00C          000002            STM     R14,R12,12(,R13)      #  Save GPRs Used
     000018  41A0 F024          000002            LA      R10,36(,R15)          #  Args for boot strap routine
     00001C  98EF F034          000002            LM      R14,R15,52(,R15)      #
     000020  47F0 F020          000002            BC      R15,32(,R15)          #  Branch to boot strap routine
     000024                     000002  L0212:    EQU     *                     #  Boot Strap Info Block
     000024  0000 0000          000002            DC      X'00000000'           #  address of entry label
     000028  0000 00E9          000002            DC      X'000000E9'           #  Storage allocation size
     00002C  0000 098C          000002            DC      X'0000098C'           #  address of Saved Option String
     000030  0000 0810          000002            DC      X'00000810'           #  address of entry point name
     000034  0000 005C          000002            DC      X'0000005C'           #  A(Label L0211)
     000038  0000 0000          000002            DC      X'00000000'           #  address of boot strap routine(IGZXBST4)
     00003C                     000002  L0213:    EQU     *                     #  CEE Parameter Block
     00003C  0000 0024          000002            DC      X'00000024'           #  address of infoBlockLabel
     000040  0000 09A4          000002            DC      X'000009A4'           #  A(PARMCEE-CEEEPARMBlock)
     000044  0000 0550          000002            DC      X'00000550'           #  A(sinit)
     000048  0000 0000          000002            DC      X'00000000'           #  reserved
     00004C                     000002  L0208:    EQU     *                     #  Handle growing stack
     00004C  58F0 C31C          000002            L       R15,796(,R12)         #  Load CEECAAOGETS
     000050  184E               000002            LR      R4,R14                #  Required NAB
     000052  05EF               000002            BALR    R14,R15               #  Extend Stack
     000054  0000 0000          000002            DC      X'00000000'           #  Argument list size = 0
     000058  A7F4 0009          000002            J       L0209                 #  Branch back
     00005C                     000002  @MAINENT  DS      0H                    #  PRIMARY ENTRY POINT ADDRESS
     00005C                     000002  L0211:    EQU     *                     #  User Code Entry Point
     00005C  18EF               000002            LR      R14,R15               #  Load NAB
     00005E  4100 E1B0          000002            LA      R0,432(,R14)          #  New NAB Address
     000062  5500 C314          000002            CL      R0,788(,R12)          #  Exceed current storage segment?
     000066  A724 FFF3          000002            JH      L0208                 #  Yes: branch to recovery code
     00006A                     000002  L0209:    EQU     *                     #  Stack now has sufficient room
     00006A  5000 E04C          000002            ST      R0,76(,R14)           #  Update NAB
     00006E  C001 0011 0301     000002            LGFI    R0,X'00110301'        #  load COBOL Language Word
     000074  5000 E000          000002            ST      R0,0(,R14)            #  Save Language Word
     000078  50D0 E004          000002            ST      R13,4(,R14)           #  Save Back Chain
     00007C  18DE               000002            LR      R13,R14               #  Set new DSA
     00007E  4100 D130          000002            LA      R0,304(,R13)          #  Address of COBDSACB
     000082  5000 D074          000002            ST      R0,116(,R13)          #  Saved in member slot1
     000086  E54C D070 0000     000002            MVHI    112(,R13),X'0000'     #  zero member slot0
     00008C  5060 D060          000002            ST      R6,96(,R13)           #  set member slot3
     000090  5070 D068          000002            ST      R7,104(,R13)          #  set member slot2
     000094  EB1F D08C 0026     000002            STMH    R1,R15,140(,R13)      #
     00009A                     000002  L0215:    EQU     *
     00009A  50C0 D080          000002            ST      R12,128(,R13)         #
     00009E  C030 0000 02E1     000002            LARL    R3,$CONSTANT_AREA
     0000A4  5800 C1F4          000002            L       R0,500(,R12)          #
     0000A8  5000 D0E0          000002            ST      R0,224(,R13)          #
     0000AC  5810 C1F4          000002            L       R1,500(,R12)          #
     0000B0  5820 3014          000002            L       R2,20(,R3)            #
     0000B4  4182 1000          000002            LA      R8,0(R2,R1)           #
     0000B8  5080 D0DC          000002            ST      R8,220(,R13)          #
     0000BC  4110 D130          000002            LA      R1,304(,R13)          #  COBDSACB
1PP 5655-EC6 IBM Enterprise COBOL for z/OS  6.3.0 P200512       TABLES00  Date 07/29/2020  Time 17:22:23   Page     8
0    0000C0  D743 1000 1000     000002            XC      0(68,R1),0(R1)        #
     0000C6  E54C D130 0007     000002            MVHI    304(,R13),X'0007'     #
     0000CC  4100 8010          000002            LA      R0,16(,R8)            #
     0000D0  5000 D154          000002            ST      R0,340(,R13)          #
     0000D4  9181 8060          000002            TM      96(,R8),X'81'         #  IPCB_Status
     0000D8  A714 0018          000002            JO      L0003
     0000DC  4100 8010          000002            LA      R0,16(,R8)            #
     0000E0  5000 D108          000002            ST      R0,264(,R13)          #
     0000E4  4100 D130          000002            LA      R0,304(,R13)          #  COBDSACB
     0000E8  5000 D10C          000002            ST      R0,268(,R13)          #
     0000EC  4110 D108          000002            LA      R1,264(,R13)          #  _ArgumentList
     0000F0  58F0 3018          000002            L       R15,24(,R3)           #
     0000F4  58C0 D080          000002            L       R12,128(,R13)         #
     0000F8  0DEF               000002            BASR    R14,R15               #  Call "IGZXPRS"
     0000FA  50F0 8084          000002            ST      R15,132(,R8)          #
     0000FE  5820 8060          000002            L       R2,96(,R8)            #  IPCB_Status
     000102  C02B 8000 0000     000002            NILF    R2,X'80000000'
     000108                     000002  L0003:    EQU     *
     000108  EB01 805C 006A     000002            ASI     92(,R8),X'01'         #
     00010E  E55D 805C 0001     000002            CLFHSI  92(,R8),X'0001'       #  IPCB_NumEnts
     000114  A784 000C          000002            JE      L0004
     000118  D223 D108 3040     000002            MVC     264(36,R13),64(R3)    #
     00011E  4110 D108          000002            LA      R1,264(,R13)          #  _ArgumentList
     000122  58F0 301C          000002            L       R15,28(,R3)           #
     000126  58C0 D080          000002            L       R12,128(,R13)         #
     00012A  0DEF               000002            BASR    R14,R15               #  Call "IGZXCMSG"
     00012C                     000002  L0004:    EQU     *
     00012C  5890 8084          000002            L       R9,132(,R8)           #
     000130  5090 D0D8          000002            ST      R9,216(,R13)          #
     000134  9180 8060          000002            TM      96(,R8),X'80'         #  IPCB_Status
     000138  A714 0018          000002            JO      USER-ENTRY
     00013C  A718 0000          000002            LHI     R1,0x0
     000140  58F0 3020          000002            L       R15,32(,R3)           #
     000144  58C0 D080          000002            L       R12,128(,R13)         #
     000148  185D               000002            LR      R5,R13
     00014A  0DEF               000002            BASR    R14,R15               #  Call "#SRVal000000001 "
     00014C  A718 0000          000002            LHI     R1,0x0
     000150  58F0 3024          000002            L       R15,36(,R3)           #
     000154  58C0 D080          000002            L       R12,128(,R13)         #
     000158  185D               000002            LR      R5,R13
     00015A  0DEF               000002            BASR    R14,R15               #  Call "#WSVal000000001 "
     00015C  5820 8060          000002            L       R2,96(,R8)            #  IPCB_Status
     000160  A52A 8100          000002            OILH    R2,0x8100
     000164  5020 8060          000002            ST      R2,96(,R8)            #
     000168                     000002  USER-ENTRY: EQU     *
     000168                     000002            SNAPSHOT ENTRY
     000168                     000022  000-TOP-LEVEL: EQU     *
     000168                     000022            SNAPSHOT PATHLABEL
  000023:             PERFORM VARYING WEEKEND-DAY-ITER FROM 1 BY 1
     000168  1800               000023            SNAPSHOT STMT
     00016A                     000023            SNAPSHOT LOOP_WHILE
     00016A  92F1 90D8          000023            MVI     216(,R9),X'F1'        #
     00016E  A7F4 0027          000023            J       L0005
     000172                     000023  L0006:    EQU     *
  000025:                   DISPLAY WS-Day-of-Week (WEEKEND-DAY-ITER)
     000172                     000025            SNAPSHOT STMT
     000172                     000025            SNAPSHOT BRANCH_END
     000172                     000025            SNAPSHOT DO
1PP 5655-EC6 IBM Enterprise COBOL for z/OS  6.3.0 P200512       TABLES00  Date 07/29/2020  Time 17:22:23   Page     9
0    000172  D207 D108 30C0     000025            MVC     264(8,R13),192(R3)    #                           +192
     000178  E900 D1A0 90D8     000025            PKA     416(R13),216(1,R9)    #                          WEEKEND-DAY-ITER
     00017E  4F20 D1A8          000025            CVB     R2,424(,R13)          #
     000182  1842               000025            LR      R4,R2
     000184  8920 0003          000025            SLL     R2,3
     000188  1A24               000025            AR      R2,R4
     00018A  4122 908F          000025            LA      R2,143(R2,R9)         #
     00018E  5020 D110          000025            ST      R2,272(,R13)          #
     000192  D20B D114 30A4     000025            MVC     276(12,R13),164(R3)   #                           +164
     000198  4110 D108          000025            LA      R1,264(,R13)          #  _ArgumentList
     00019C  58F0 3028          000025            L       R15,40(,R3)           #
     0001A0  58C0 D080          000025            L       R12,128(,R13)         #
     0001A4  0DEF               000025            BASR    R14,R15               #  Call "IGZXDSP"
  000026:             END-PERFORM.
     0001A6                     000026            SNAPSHOT STMT
     0001A6  E900 D190 90D8     000026            PKA     400(R13),216(1,R9)    #                          WEEKEND-DAY-ITER
     0001AC  FA00 D19F 30D1     000026            AP      415(1,R13),209(1,R3)  #                           +209
     0001B2  F300 90D8 D19F     000026            UNPK    216(1,R9),415(1,R13)  #
     0001B8  96F0 90D8          000026            OI      216(,R9),X'F0'        #
     0001BC                     000026  L0005:    EQU     *
     0001BC  E900 D1A0 90D8     000026            PKA     416(R13),216(1,R9)    #                          WEEKEND-DAY-ITER
     0001C2  957C D1AF          000026            CLI     431(,R13),X'7C'       #
     0001C6  A7C4 FFD6          000026            JNH     L0006
  000027:             PERFORM VARYING WS-DW-ITER FROM 1 BY 1
     0001CA  1800               000027            SNAPSHOT STMT
     0001CC                     000027            SNAPSHOT POSTCOMPOUND
     0001CC                     000027            SNAPSHOT LOOP_WHILE
     0001CC  E54C 8000 0000     000027            MVHI    0(,R8),X'0000'        #
     0001D2  A7F4 0018          000027            J       L0007
     0001D6                     000027  L0008:    EQU     *
  000029:                   DISPLAY WS-Day-of-Week (WS-DW-ITER)
     0001D6                     000029            SNAPSHOT STMT
     0001D6                     000029            SNAPSHOT BRANCH_END
     0001D6                     000029            SNAPSHOT DO
     0001D6  D207 D108 30C0     000029            MVC     264(8,R13),192(R3)    #                           +192
     0001DC  5820 8000          000029            L       R2,0(,R8)             #  WS-DW-ITER
     0001E0  4122 9098          000029            LA      R2,152(R2,R9)         #
     0001E4  5020 D110          000029            ST      R2,272(,R13)          #
     0001E8  D20B D114 30A4     000029            MVC     276(12,R13),164(R3)   #                           +164
     0001EE  4110 D108          000029            LA      R1,264(,R13)          #  _ArgumentList
     0001F2  58F0 3028          000029            L       R15,40(,R3)           #
     0001F6  58C0 D080          000029            L       R12,128(,R13)         #
     0001FA  0DEF               000029            BASR    R14,R15               #  Call "IGZXDSP"
  000030:             END-PERFORM.
     0001FC                     000030            SNAPSHOT STMT
     0001FC  EB09 8000 006A     000030            ASI     0(,R8),X'09'          #
     000202                     000030  L0007:    EQU     *
     000202  E55C 8000 0036     000030            CHSI    0(,R8),X'0036'        #  WS-DW-ITER
     000208  A7C4 FFE7          000030            JNH     L0008
  000031:             SET WS-DW-ITER TO 1.
     00020C                     000031            SNAPSHOT STMT
     00020C                     000031            SNAPSHOT POSTCOMPOUND
     00020C  E54C 8000 0000     000031            MVHI    0(,R8),X'0000'        #
  000032:             SEARCH WS-Day-of-Week
     000212                     000032            SNAPSHOT STMT
     000212                     000032            SNAPSHOT SEARCH
     000212  A7F4 0005          000032            J       L0009
     000216                     000032  L0013:    EQU     *
1PP 5655-EC6 IBM Enterprise COBOL for z/OS  6.3.0 P200512       TABLES00  Date 07/29/2020  Time 17:22:23   Page    10
0    000216  EB09 8000 006A     000032            ASI     0(,R8),X'09'          #
     00021C                     000032  L0009:    EQU     *
     00021C  E55C 8000 0036     000032            CHSI    0(,R8),X'0036'        #  WS-DW-ITER
     000222  A7C4 000E          000032            JNH     L0010
  000033:                AT END DISPLAY "Day not found"
     000226                     000033            SNAPSHOT STMT
     000226                     000033            SNAPSHOT PATH_SEARCH_OTHER
     000226  D217 D108 3074     000033            MVC     264(24,R13),116(R3)   #
     00022C  4110 D108          000033            LA      R1,264(,R13)          #  _ArgumentList
     000230  58F0 3028          000033            L       R15,40(,R3)           #
     000234  58C0 D080          000033            L       R12,128(,R13)         #
     000238  0DEF               000033            BASR    R14,R15               #  Call "IGZXDSP"
     00023A  A7F4 0034          000033            J       L0011
     00023E                     000033  L0010:    EQU     *
  000034:                WHEN WS-Day-of-Week (WS-DW-ITER) = WEEKEND-SEARCH
     00023E                     000034            SNAPSHOT STMT
     00023E  5820 8000          000034            L       R2,0(,R8)             #  WS-DW-ITER
     000242  4122 9000          000034            LA      R2,0(R2,R9)           #
     000246  D508 2098 90E0     000034            CLC     152(9,R2),224(R9)     #
     00024C  A774 0029          000034            BRC     7,L0012
  000035:                   SET WEEKEND-DAY-ITER TO WS-DW-ITER
     000250                     000035            SNAPSHOT STMT
     000250                     000035            SNAPSHOT PATH_SEARCH_WHEN_BEGIN
     000250  5820 8000          000035            L       R2,0(,R8)             #  WS-DW-ITER
     000254  1852               000035            LR      R5,R2
     000256  1845               000035            LR      R4,R5
     000258  5C40 30D4          000035            M       R4:R5,212(,R3)        #
     00025C  8A40 0001          000035            SRA     R4,1
     000260  8820 001F          000035            SRL     R2,31
     000264  1A42               000035            AR      R4,R2
     000266  A74A 0001          000035            AHI     R4,0x1
     00026A  4E40 D1A8          000035            CVD     R4,424(,R13)          #
     00026E  F300 90D8 D1AF     000035            UNPK    216(1,R9),431(1,R13)  #
     000274  96F0 90D8          000035            OI      216(,R9),X'F0'        #
  000036:                   DISPLAY WEEKEND-DAY-ITER
     000278                     000036            SNAPSHOT STMT
     000278                     000036            SNAPSHOT BRANCH_END
     000278  D207 D108 30C0     000036            MVC     264(8,R13),192(R3)    #                           +192
     00027E  4120 90D8          000036            LA      R2,216(,R9)           #
     000282  5020 D110          000036            ST      R2,272(,R13)          #
     000286  D20B D114 30B0     000036            MVC     276(12,R13),176(R3)   #                           +176
     00028C  4110 D108          000036            LA      R1,264(,R13)          #  _ArgumentList
     000290  58F0 3028          000036            L       R15,40(,R3)           #
     000294  58C0 D080          000036            L       R12,128(,R13)         #
     000298  0DEF               000036            BASR    R14,R15               #  Call "IGZXDSP"
     00029A  A7F4 0004          000036            J       L0011
     00029E                     000036  L0012:    EQU     *
     00029E  A7F4 FFBC          000036            J       L0013
     0002A2                     000036  L0011:    EQU     *
  000038:             GOBACK.
     0002A2                     000038            SNAPSHOT STMT
     0002A2                     000038            SNAPSHOT POSTCOMPOUND
     0002A2                     000038            SNAPSHOT EXIT
     0002A2  9181 D134          000038            TM      308(,R13),X'81'       #  DSAFlags
     0002A6  A784 003C          000038            JE      L0014
     0002AA  A718 0000          000038            LHI     R1,0x0
     0002AE  58F0 302C          000038            L       R15,44(,R3)           #
     0002B2  58C0 D080          000038            L       R12,128(,R13)         #
1PP 5655-EC6 IBM Enterprise COBOL for z/OS  6.3.0 P200512       TABLES00  Date 07/29/2020  Time 17:22:23   Page    11
0    0002B6  0DEF               000038            BASR    R14,R15               #  Call "IGZXRTN"
     0002B8  9180 D134          000038            TM      308(,R13),X'80'       #  DSAFlags
     0002BC  A784 0031          000038            JE      L0014
     0002C0  E54C D0E8 0000     000038            MVHI    232(,R13),X'0000'     #
     0002C6  4820 9008          000038            LH      R2,8(,R9)             #  RETURN-CODE
     0002CA  5020 D0E4          000038            ST      R2,228(,R13)          #
     0002CE                     000002            SNAPSHOT EXIT
     0002CE  4120 D0E8          000002            LA      R2,232(,R13)          #  TS2=12
     0002D2  5020 D108          000002            ST      R2,264(,R13)          #
     0002D6  4120 D0E4          000002            LA      R2,228(,R13)          #  TS2=13
     0002DA  5020 D10C          000002            ST      R2,268(,R13)          #
     0002DE  4110 D108          000002            LA      R1,264(,R13)          #  _ArgumentList
     0002E2  58F0 3030          000002            L       R15,48(,R3)           #
     0002E6  58C0 D080          000002            L       R12,128(,R13)         #
     0002EA  0DEF               000002            BASR    R14,R15               #  Call "IGZXTREN"
     0002EC  A7F4 0019          000002            J       L0014
     0002F0                     000038            SNAPSHOT EXIT
     0002F0  9181 D134          000038            TM      308(,R13),X'81'       #  DSAFlags
     0002F4  A784 0015          000038            JE      L0014
     0002F8  A718 0000          000038            LHI     R1,0x0
     0002FC  58F0 3034          000038            L       R15,52(,R3)           #
     000300  58C0 D080          000038            L       R12,128(,R13)         #
     000304  0DEF               000038            BASR    R14,R15               #  Call "IGZXRT1"
     000306  A7F4 000C          000038            J       L0014
     00030A  D217 D108 308C     000038            MVC     264(24,R13),140(R3)   #
     000310  4110 D108          000038            LA      R1,264(,R13)          #  _ArgumentList
     000314  58F0 301C          000038            L       R15,28(,R3)           #
     000318  58C0 D080          000038            L       R12,128(,R13)         #
     00031C  0DEF               000038            BASR    R14,R15               #  Call "IGZXCMSG"
     00031E                     000038  L0014:    EQU     *
     00031E  EBFF 805C 006A     000038            ASI     92(,R8),X'FF'         #
     000324                     000002            SNAPSHOT EXIT
     000324  D201 D104 9008     000002            MVC     260(2,R13),8(R9)      #                          RETURN-CODE
     00032A  48F0 D104          000002            LH      R15,260(,R13)         #
     00032E  EB1F D08C 0096     000002            LMH     R1,R15,140(,R13)      #
     000334  58D0 D004          000002            L       R13,4(,R13)           #  Caller's DSA
     000338  58E0 D00C          000002            L       R14,12(,R13)          #  Return Address
     00033C  980C D014          000002            LM      R0,R12,20(,R13)       #  Restore Caller's registers
     000340  07FE               000002            BR      R14                   #  Return
     000342  0707               000002            BCR     0,R7
     000344                     000002            RET
     000344  1800               000002            SNAPSHOT EXIT



                     ***   General purpose registers used: 1111111111101111
                     ***   Floating point  registers used: 0000000000000000
                     ***   Size of storage acquired: 432
                     ***   Size of executable code: 838



     000348                     000000            PROC    #SRVal000000001
     000348  47F0 F024          000000            BC      R15,36(,R15)          #  Skip over constant area
     00034C  01C3 C5C5          000000            DC      X'01C3C5C5'           #  Eyecatcher: CEE
     000350  0000 00E8          000000            DC      X'000000E8'           #  Stack Size
     000354  0000 04D8          000000            DC      X'000004D8'           #  Offset to PPA1
     000358  47F0 F001          000000            BC      R15,1(,R15)           #  Wrong Entry Point: cause exception
1PP 5655-EC6 IBM Enterprise COBOL for z/OS  6.3.0 P200512       TABLES00  Date 07/29/2020  Time 17:22:23   Page    12
0    00035C                     000000  L0018:    EQU     *
     00035C                     000000  L0016:    EQU     *                     #  Handle growing stack
     00035C  58F0 C31C          000000            L       R15,796(,R12)         #  Load CEECAAOGETS
     000360  184E               000000            LR      R4,R14                #  Required NAB
     000362  05EF               000000            BALR    R14,R15               #  Extend Stack
     000364  0000 0000          000000            DC      X'00000000'           #  Argument list size = 0
     000368  A7F4 000C          000000            J       L0017                 #  Branch back
     00036C  90E9 D00C          000000            STM     R14,R9,12(,R13)       #  Save GPRs Used
     000370  58E0 D04C          000000            L       R14,76(,R13)          #  Load NAB
     000374  4100 E0E8          000000            LA      R0,232(,R14)          #  New NAB Address
     000378  5500 C314          000000            CL      R0,788(,R12)          #  Exceed current storage segment?
     00037C  A724 FFF0          000000            JH      L0016                 #  Yes: branch to recovery code
     000380                     000000  L0017:    EQU     *                     #  Stack now has sufficient room
     000380  5000 E04C          000000            ST      R0,76(,R14)           #  Update NAB
     000384  C001 0011 0301     000000            LGFI    R0,X'00110301'        #  load COBOL Language Word
     00038A  5000 E000          000000            ST      R0,0(,R14)            #  Save Language Word
     00038E  50D0 E004          000000            ST      R13,4(,R14)           #  Save Back Chain
     000392  4100 5130          000000            LA      R0,304(,R5)           #  Address of COBDSACB
     000396  18DE               000000            LR      R13,R14               #  Set new DSA
     000398  5000 D074          000000            ST      R0,116(,R13)          #  Saved in member slot1
     00039C  E54C D070 0000     000000            MVHI    112(,R13),X'0000'     #  zero member slot0
     0003A2  5060 D060          000000            ST      R6,96(,R13)           #  set member slot3
     0003A6  5070 D068          000000            ST      R7,104(,R13)          #  set member slot2
     0003AA  EB1F D090 0026     000000            STMH    R1,R15,144(,R13)      #
     0003B0                     000000  L0019:    EQU     *
     0003B0  50C0 D080          000000            ST      R12,128(,R13)         #
     0003B4  5050 D084          000000            ST      R5,132(,R13)          #
     0003B8  C030 0000 0154     000000            LARL    R3,$CONSTANT_AREA
     0003BE  5800 50E0          000000            L       R0,224(,R5)           #
     0003C2  5000 D0E4          000000            ST      R0,228(,R13)          #
     0003C6  5880 50DC          000000            L       R8,220(,R5)           #
     0003CA  5080 D0E0          000000            ST      R8,224(,R13)          #
     0003CE  5890 8084          000000            L       R9,132(,R8)           #
     0003D2  5090 D0DC          000000            ST      R9,220(,R13)          #
     0003D6  E544 9008 0000     000000            MVHHI   8(,R9),X'0000'        #
     0003DC  E544 9010 0000     000000            MVHHI   16(,R9),X'0000'       #
     0003E2  E54C 9088 0000     000000            MVHI    136(,R9),X'0000'      #
     0003E8  E54C 9090 0000     000000            MVHI    144(,R9),X'0000'      #
     0003EE  D207 9018 30D8     000000            MVC     24(8,R9),216(R3)      #
     0003F4  E54C 9020 0000     000000            MVHI    32(,R9),X'0000'       #
     0003FA  E54C 9028 0000     000000            MVHI    40(,R9),X'0000'       #
     000400  E54C 9030 0000     000000            MVHI    48(,R9),X'0000'       #
     000406  D207 9038 30E3     000000            MVC     56(8,R9),227(R3)      #
     00040C  E54C 9040 0000     000000            MVHI    64(,R9),X'0000'       #
     000412  D200 9048 30ED     000000            MVC     72(1,R9),237(R3)      #
     000418  D200 9050 30EE     000000            MVC     80(1,R9),238(R3)      #
     00041E  E54C 9058 0000     000000            MVHI    88(,R9),X'0000'       #
     000424  E54C 9080 0000     000000            MVHI    128(,R9),X'0000'      #
     00042A  9240 9060          000000            MVI     96(,R9),X'40'         #
     00042E  D21C 9061 9060     000000            MVC     97(29,R9),96(R9)      #
     000434  4100 8004          000000            LA      R0,4(,R8)             #  BLT_1
     000438  5000 8004          000000            ST      R0,4(,R8)             #
     00043C  4100 8008          000000            LA      R0,8(,R8)             #  BLT_2
     000440  5000 8008          000000            ST      R0,8(,R8)             #
     000444  4100 800C          000000            LA      R0,12(,R8)            #  BLT_3
     000448  5000 800C          000000            ST      R0,12(,R8)            #
     00044C  EB1F D090 0096     000000            LMH     R1,R15,144(,R13)      #
     000452  58D0 D004          000000            L       R13,4(,R13)           #  Caller's DSA
1PP 5655-EC6 IBM Enterprise COBOL for z/OS  6.3.0 P200512       TABLES00  Date 07/29/2020  Time 17:22:23   Page    13
0    000456  58E0 D00C          000000            L       R14,12(,R13)          #  Return Address
     00045A  9809 D014          000000            LM      R0,R9,20(,R13)        #  Restore Caller's registers
     00045E  07FE               000000            BR      R14                   #  Return
     000460  0707               000000            BCR     0,R7
     000462                     000000            RET



                     ***   General purpose registers used: 1101111111001111
                     ***   Floating point  registers used: 0000000000000000
                     ***   Size of storage acquired: 232
                     ***   Size of executable code: 282



     000468                     000000            PROC    #WSVal000000001
     000468  47F0 F024          000000            BC      R15,36(,R15)          #  Skip over constant area
     00046C  01C3 C5C5          000000            DC      X'01C3C5C5'           #  Eyecatcher: CEE
     000470  0000 00E8          000000            DC      X'000000E8'           #  Stack Size
     000474  0000 0410          000000            DC      X'00000410'           #  Offset to PPA1
     000478  47F0 F001          000000            BC      R15,1(,R15)           #  Wrong Entry Point: cause exception
     00047C                     000000  L0018:    EQU     *
     00047C                     000000  L0016:    EQU     *                     #  Handle growing stack
     00047C  58F0 C31C          000000            L       R15,796(,R12)         #  Load CEECAAOGETS
     000480  184E               000000            LR      R4,R14                #  Required NAB
     000482  05EF               000000            BALR    R14,R15               #  Extend Stack
     000484  0000 0000          000000            DC      X'00000000'           #  Argument list size = 0
     000488  A7F4 000C          000000            J       L0017                 #  Branch back
     00048C  90E9 D00C          000000            STM     R14,R9,12(,R13)       #  Save GPRs Used
     000490  58E0 D04C          000000            L       R14,76(,R13)          #  Load NAB
     000494  4100 E0E8          000000            LA      R0,232(,R14)          #  New NAB Address
     000498  5500 C314          000000            CL      R0,788(,R12)          #  Exceed current storage segment?
     00049C  A724 FFF0          000000            JH      L0016                 #  Yes: branch to recovery code
     0004A0                     000000  L0017:    EQU     *                     #  Stack now has sufficient room
     0004A0  5000 E04C          000000            ST      R0,76(,R14)           #  Update NAB
     0004A4  C001 0011 0301     000000            LGFI    R0,X'00110301'        #  load COBOL Language Word
     0004AA  5000 E000          000000            ST      R0,0(,R14)            #  Save Language Word
     0004AE  50D0 E004          000000            ST      R13,4(,R14)           #  Save Back Chain
     0004B2  4100 5130          000000            LA      R0,304(,R5)           #  Address of COBDSACB
     0004B6  18DE               000000            LR      R13,R14               #  Set new DSA
     0004B8  5000 D074          000000            ST      R0,116(,R13)          #  Saved in member slot1
     0004BC  E54C D070 0000     000000            MVHI    112(,R13),X'0000'     #  zero member slot0
     0004C2  5060 D060          000000            ST      R6,96(,R13)           #  set member slot3
     0004C6  5070 D068          000000            ST      R7,104(,R13)          #  set member slot2
     0004CA  EB1F D090 0026     000000            STMH    R1,R15,144(,R13)      #
     0004D0                     000000  L0019:    EQU     *
     0004D0  50C0 D080          000000            ST      R12,128(,R13)         #
     0004D4  5050 D084          000000            ST      R5,132(,R13)          #
     0004D8  C030 0000 00C4     000000            LARL    R3,$CONSTANT_AREA
     0004DE  5800 50E0          000000            L       R0,224(,R5)           #
     0004E2  5000 D0E4          000000            ST      R0,228(,R13)          #
     0004E6  5880 50DC          000000            L       R8,220(,R5)           #
     0004EA  5080 D0E0          000000            ST      R8,224(,R13)          #
     0004EE  5890 8084          000000            L       R9,132(,R8)           #
     0004F2  5090 D0DC          000000            ST      R9,220(,R13)          #
     0004F6  D208 9098 30EF     000000            MVC     152(9,R9),239(R3)     #  FILLER
     0004FC  D208 90A1 30F8     000000            MVC     161(9,R9),248(R3)     #  FILLER
     000502  D208 90AA 3101     000000            MVC     170(9,R9),257(R3)     #  FILLER
1PP 5655-EC6 IBM Enterprise COBOL for z/OS  6.3.0 P200512       TABLES00  Date 07/29/2020  Time 17:22:23   Page    14
0    000508  D208 90B3 310A     000000            MVC     179(9,R9),266(R3)     #  FILLER
     00050E  D208 90BC 3113     000000            MVC     188(9,R9),275(R3)     #  FILLER
     000514  D208 90C5 311C     000000            MVC     197(9,R9),284(R3)     #  FILLER
     00051A  D208 90CE 3125     000000            MVC     206(9,R9),293(R3)     #  FILLER
     000520  92F0 90D8          000000            MVI     216(,R9),X'F0'        #
     000524  D205 90E0 311C     000000            MVC     224(6,R9),284(R3)     #
     00052A  E544 90E6 4040     000000            MVHHI   230(,R9),X'4040'      #
     000530  9240 90E8          000000            MVI     232(,R9),X'40'        #
     000534  EB1F D090 0096     000000            LMH     R1,R15,144(,R13)      #
     00053A  58D0 D004          000000            L       R13,4(,R13)           #  Caller's DSA
     00053E  58E0 D00C          000000            L       R14,12(,R13)          #  Return Address
     000542  9809 D014          000000            LM      R0,R9,20(,R13)        #  Restore Caller's registers
     000546  07FE               000000            BR      R14                   #  Return
     000548  0707               000000            BCR     0,R7
     00054A                     000000            RET



                     ***   General purpose registers used: 1101111111001111
                     ***   Floating point  registers used: 0000000000000000
                     ***   Size of storage acquired: 232
                     ***   Size of executable code: 226



     000550                     000000            PROC    __COMPUNITsinit
     000550  47F0 F024          000000            BC      R15,36(,R15)          #  Skip over constant area
     000554  01C3 C5C5          000000            DC      X'01C3C5C5'           #  Eyecatcher: CEE
     000558  0000 00E8          000000            DC      X'000000E8'           #  Stack Size
     00055C  0000 0380          000000            DC      X'00000380'           #  Offset to PPA1
     000560  47F0 F001          000000            BC      R15,1(,R15)           #  Wrong Entry Point: cause exception
     000564                     000000  L0018:    EQU     *
     000564                     000000  L0016:    EQU     *                     #  Handle growing stack
     000564  58F0 C31C          000000            L       R15,796(,R12)         #  Load CEECAAOGETS
     000568  184E               000000            LR      R4,R14                #  Required NAB
     00056A  05EF               000000            BALR    R14,R15               #  Extend Stack
     00056C  0000 0000          000000            DC      X'00000000'           #  Argument list size = 0
     000570  A7F4 000C          000000            J       L0017                 #  Branch back
     000574  90EC D00C          000000            STM     R14,R12,12(,R13)      #  Save GPRs Used
     000578  58E0 D04C          000000            L       R14,76(,R13)          #  Load NAB
     00057C  4100 E0E8          000000            LA      R0,232(,R14)          #  New NAB Address
     000580  5500 C314          000000            CL      R0,788(,R12)          #  Exceed current storage segment?
     000584  A724 FFF0          000000            JH      L0016                 #  Yes: branch to recovery code
     000588                     000000  L0017:    EQU     *                     #  Stack now has sufficient room
     000588  5000 E04C          000000            ST      R0,76(,R14)           #  Update NAB
     00058C  C001 0011 0301     000000            LGFI    R0,X'00110301'        #  load COBOL Language Word
     000592  5000 E000          000000            ST      R0,0(,R14)            #  Save Language Word
     000596  50D0 E004          000000            ST      R13,4(,R14)           #  Save Back Chain
     00059A  18DE               000000            LR      R13,R14               #  Set new DSA
     00059C  E54C D074 0000     000000            MVHI    116(,R13),X'0000'     #  Zero COBDSA
     0005A2  E54C D070 0000     000000            MVHI    112(,R13),X'0000'     #  zero member slot0
     0005A8  5060 D060          000000            ST      R6,96(,R13)           #  set member slot3
     0005AC  5070 D068          000000            ST      R7,104(,R13)          #  set member slot2
     0005B0  EB1F D090 0026     000000            STMH    R1,R15,144(,R13)      #
     0005B6                     000000  L0019:    EQU     *
     0005B6  5010 D080          000000            ST      R1,128(,R13)          #
     0005BA  50C0 D084          000000            ST      R12,132(,R13)         #
     0005BE  C030 0000 0051     000000            LARL    R3,$CONSTANT_AREA
1PP 5655-EC6 IBM Enterprise COBOL for z/OS  6.3.0 P200512       TABLES00  Date 07/29/2020  Time 17:22:23   Page    15
0    0005C4  5800 C1F4          000000            L       R0,500(,R12)          #
     0005C8  5000 D0E0          000000            ST      R0,224(,R13)          #
     0005CC  5820 1000          000000            L       R2,0(,R1)             #
     0005D0  5840 3014          000000            L       R4,20(,R3)            #
     0005D4  4184 2000          000000            LA      R8,0(R4,R2)           #
     0005D8  5080 D0DC          000000            ST      R8,220(,R13)          #
     0005DC  E54C 805C 0000     000000            MVHI    92(,R8),X'0000'       #
     0005E2  4100 8010          000000            LA      R0,16(,R8)            #
     0005E6  5000 8078          000000            ST      R0,120(,R8)           #
     0005EA  D207 8050 3158     000000            MVC     80(8,R8),344(R3)      #  GPCB_VRM_VERSION         +344
     0005F0  D207 8010 3160     000000            MVC     16(8,R8),352(R3)      #  GPCB_EYECATCH            +352
     0005F6  E54C 8058 0028     000000            MVHI    88(,R8),X'0028'       #
     0005FC  4100 805C          000000            LA      R0,92(,R8)            #  IPCB_NumEnts
     000600  5000 8018          000000            ST      R0,24(,R8)            #
     000604  D20B 801C 3138     000000            MVC     28(12,R8),312(R3)     #
     00060A  E54C 802C 0000     000000            MVHI    44(,R8),X'0000'       #
     000610  E54C 8038 0000     000000            MVHI    56(,R8),X'0000'       #
     000616  E54C 8030 0000     000000            MVHI    48(,R8),X'0000'       #
     00061C  D213 803C 3144     000000            MVC     60(20,R8),324(R3)     #  GPCB_ASCII->EBCDICPtr(V2 +324
     000622  5800 3134          000000            L       R0,308(,R3)           #
     000626  5000 8064          000000            ST      R0,100(,R8)           #
     00062A  E54C 8068 0000     000000            MVHI    104(,R8),X'0000'      #
     000630  E54C 8070 0000     000000            MVHI    112(,R8),X'0000'      #
     000636  E54C 8060 0000     000000            MVHI    96(,R8),X'0000'       #
     00063C  E548 807C 0000     000000            MVGHI   124(,R8),X'0000'      #
     000642  E54C 806C 0000     000000            MVHI    108(,R8),X'0000'      #
     000648  EB1F D090 0096     000000            LMH     R1,R15,144(,R13)      #
     00064E  58D0 D004          000000            L       R13,4(,R13)           #  Caller's DSA
     000652  58E0 D00C          000000            L       R14,12(,R13)          #  Return Address
     000656  980C D014          000000            LM      R0,R12,20(,R13)       #  Restore Caller's registers
     00065A  07FE               000000            BR      R14                   #  Return
     00065C  0707               000000            BCR     0,R7
     00065E                     000000            RET



                     ***   General purpose registers used: 1111101110001111
                     ***   Floating point  registers used: 0000000000000000
                     ***   Size of storage acquired: 232
                     ***   Size of executable code: 270






                     CONSTANT AREA

  000660 (+0)      00CCDDFF 00000000 E3C1C2D3 C5E2F0F0 00000000 00000000 00000000 00000000      |........TABLES00................|
  000680 (+32)     00000348 00000468 00000000 00000000 00000000 00000000 E3C1C2D3 C5E2F0F0      |........................TABLES00|
  0006A0 (+64)     00000040 00000000 00000002 0000000B 00000008 00000698 0000000B 00000008      |... ...................q........|
  0006C0 (+96)     00000698 C481A840 9596A340 8696A495 84000000 00000001 01040474 000006C4      |...qDay not found..............D|
  0006E0 (+128)    0000000B 0000000D 00000000 00000025 00000000 00000001 0000000B 00000008      |................................|
  000700 (+160)    00000698 0000000B 00000009 00000000 0000000B 00000001 00000001 00000000      |...q............................|
  000720 (+192)    00000001 01040474 00000007 00000000 F11F7C00 38E38E39 C9C7E9E2 D9E3C3C4      |................1.@..T..IGZSRTCD|
  000740 (+224)    40000AE2 E8E2D6E4 E3404000 0B0E0FE2 E4D5C4C1 E8404040 D4D6D5C4 C1E84040      | ..SYSOUT  ....SUNDAY   MONDAY  |
  000760 (+256)    40E3E4C5 E2C4C1E8 4040E6C5 C4D5C5E2 C4C1E8E3 C8E4D9E2 C4C1E840 C6D9C9C4      | TUESDAY  WEDNESDAYTHURSDAY FRID|
  000780 (+288)    C1E84040 40E2C1E3 E4C4C1E8 40404040 40000000 00000000 00000698 00000008      |AY   SATUDAY     ..........q....|
1PP 5655-EC6 IBM Enterprise COBOL for z/OS  6.3.0 P200512       TABLES00  Date 07/29/2020  Time 17:22:23   Page    16
0 0007A0 (+320)    04000000 00000000 00000000 E2E8E2D6 E4E34040 00000000 F2F0F1F3 F3F6F3F0      |............SYSOUT  ....20133630|
  0007C0 (+352)    C7D7C3C2 00000001 00000028                                                   |GPCB........                    |



                     PPA1:  Entry Point Constants
  0007D0  20CEA506                                               =F'550413574'      Flags
  0007D4  000009C8                                               =A(PPA2-TABLES00)
  0007D8  00000928                                               =A(PPA3-TABLES00)
  0007DC  00000000                                               =F'0'              No EPD
  0007E0  FFFF0000                                               =F'-65536'         Register Save Mask
  0007E4  40000000                                               =F'1073741824'     Member Flags
  0007E8  90                                                     =AL1(144)          Flags
  0007E9  0001B0                                                 =AL3(432)          Callee's DSA use/8
  0007EC  0002                                                   =AL2(2)            Flags
  0007EE  0012                                                   =H'18'             Offset/2 to CDL
  0007F0  D0000130                                               =F'-805306064'     State variable location
  0007F4  00000000                                               =F'0'              CDL function length/2
  0007F8  00000000                                               =F'0'              CDL function EP offset
  0007FC  00000000                                               =F'0'              CDL prolog
  000800  00000000                                               =F'0'              CDL epilog
  000804  00000000                                               =F'0'              CDL end
  000808  00000000                                               =F'0'              VRs Area
  00080C  80000000                                               =F'-2147483648'    Extended Flag Field
  000810  0008  ****                                             AL2(8),C'TABLES00'
                     PPA1  End




                     PPA1:  Entry Point Constants
  000820  20CE2106                                               =F'550379782'      Flags
  000824  00000680                                               =A(PPA2-#SRVal000000001 )
  000828  000005F0                                               =A(PPA3-#SRVal000000001 )
  00082C  00000000                                               =F'0'              No EPD
  000830  FFF10000                                               =F'-983040'        Register Save Mask
  000834  00000000                                               =F'0'              Member Flags
  000838  90                                                     =AL1(144)          Flags
  000839  0000E8                                                 =AL3(232)          Callee's DSA use/8
  00083C  0002                                                   =AL2(2)            Flags
  00083E  0012                                                   =H'18'             Offset/2 to CDL
  000840  00000000                                               =F'0'              State variable location
  000844  00000000                                               =F'0'              CDL function length/2
  000848  00000000                                               =F'0'              CDL function EP offset
  00084C  00000000                                               =F'0'              CDL prolog
  000850  00000000                                               =F'0'              CDL epilog
  000854  00000000                                               =F'0'              CDL end
  000858  00000000                                               =F'0'              VRs Area
  00085C  80000000                                               =F'-2147483648'    Extended Flag Field
  000860  0010  ****                                             AL2(16),C'#SRVal000000001 '
                     PPA1  End




                     PPA1:  Entry Point Constants
  000878  20CE2106                                               =F'550379782'      Flags
  00087C  00000560                                               =A(PPA2-#WSVal000000001 )
1PP 5655-EC6 IBM Enterprise COBOL for z/OS  6.3.0 P200512       TABLES00  Date 07/29/2020  Time 17:22:23   Page    17
0 000880  000004E0                                               =A(PPA3-#WSVal000000001 )
  000884  00000000                                               =F'0'              No EPD
  000888  FFF10000                                               =F'-983040'        Register Save Mask
  00088C  00000000                                               =F'0'              Member Flags
  000890  90                                                     =AL1(144)          Flags
  000891  0000E8                                                 =AL3(232)          Callee's DSA use/8
  000894  0002                                                   =AL2(2)            Flags
  000896  0012                                                   =H'18'             Offset/2 to CDL
  000898  00000000                                               =F'0'              State variable location
  00089C  00000000                                               =F'0'              CDL function length/2
  0008A0  00000000                                               =F'0'              CDL function EP offset
  0008A4  00000000                                               =F'0'              CDL prolog
  0008A8  00000000                                               =F'0'              CDL epilog
  0008AC  00000000                                               =F'0'              CDL end
  0008B0  00000000                                               =F'0'              VRs Area
  0008B4  80000000                                               =F'-2147483648'    Extended Flag Field
  0008B8  0010  ****                                             AL2(16),C'#WSVal000000001 '
                     PPA1  End




                     PPA1:  Entry Point Constants
  0008D0  20CE2106                                               =F'550379782'      Flags
  0008D4  00000478                                               =A(PPA2-__COMPUNITsinit)
  0008D8  00000408                                               =A(PPA3-__COMPUNITsinit)
  0008DC  00000000                                               =F'0'              No EPD
  0008E0  FFFF0000                                               =F'-65536'         Register Save Mask
  0008E4  00000000                                               =F'0'              Member Flags
  0008E8  90                                                     =AL1(144)          Flags
  0008E9  0000E8                                                 =AL3(232)          Callee's DSA use/8
  0008EC  0002                                                   =AL2(2)            Flags
  0008EE  0012                                                   =H'18'             Offset/2 to CDL
  0008F0  00000000                                               =F'0'              State variable location
  0008F4  00000000                                               =F'0'              CDL function length/2
  0008F8  00000000                                               =F'0'              CDL function EP offset
  0008FC  00000000                                               =F'0'              CDL prolog
  000900  00000000                                               =F'0'              CDL epilog
  000904  00000000                                               =F'0'              CDL end
  000908  00000000                                               =F'0'              VRs Area
  00090C  80000000                                               =F'-2147483648'    Extended Flag Field
  000910  000F  ****                                             AL2(15),C'__COMPUNITsinit'
                     PPA1  End


                     PPA3:  Entry Point Constants
  000928  00000000                                               =F'0'              Flags
  00092C  000000D0                                               =F'208'            A(Base_Locator_Table-PPA3)
  000930  000000E8                                               =F'232'            A(Special_Register_Table-PPA3)
  000934  00000168                                               =X'168'            A(User_Entry-CUEntry)
                     PPA3  End


                     PPA3:  Entry Point Constants
  000938  00000000                                               =F'0'              Flags
  00093C  00000000                                               =F'0'              A(Base_Locator_Table-PPA3)
  000940  00000000                                               =F'0'              A(Special_Register_Table-PPA3)
  000944  00000000                                               =X'0'              A(User_Entry-CUEntry)
1PP 5655-EC6 IBM Enterprise COBOL for z/OS  6.3.0 P200512       TABLES00  Date 07/29/2020  Time 17:22:23   Page    18
0                    PPA3  End


                     PPA3:  Entry Point Constants
  000948  00000000                                               =F'0'              Flags
  00094C  00000000                                               =F'0'              A(Base_Locator_Table-PPA3)
  000950  00000000                                               =F'0'              A(Special_Register_Table-PPA3)
  000954  00000000                                               =X'0'              A(User_Entry-CUEntry)
                     PPA3  End


                     PPA3:  Entry Point Constants
  000958  00000000                                               =F'0'              Flags
  00095C  00000000                                               =F'0'              A(Base_Locator_Table-PPA3)
  000960  00000000                                               =F'0'              A(Special_Register_Table-PPA3)
  000964  00000000                                               =X'0'              A(User_Entry-CUEntry)
                     PPA3  End

  000968  FBE4  E197  11AC                                       =X'FBE4E19711AC'   md5 signature
  00096E  8D63  E4AA  99F7                                       =X'8D63E4AA99F7'   md5 signature
  000974  19AE  CA07                                             =X'19AECA07'       md5 signature

                     Timestamp and Version Information
  000978  F2F0  F2F0                                             =C'2020'           Compiled Year
  00097C  F0F7  F2F9                                             =C'0729'           Compiled Date MMDD
  000980  F1F7  F2F2  F2F3                                       =C'172223'         Compiled Time HHMMSS
  000986  F0F6  F0F3  F0F0                                       =C'060300'         VERSION/RELEASE/MOD LEVEL OF PROD
                     Timestamp and Version Information End


                     Compiler Options and Program Information Section
  00098C         0038                                            =X'0038'           Size of Compiler Options and Prog Info Section
  00098E  (+00)  0474                                            =X'0474'           UNSIGNED BINARY CODE PAGE CCSID VALUE
  000990  (+02)  08                                              =X'08'             ARCHITECTURE LEVEL
  000991  (+03)  00                                              =X'00'             OPTIMIZATION LEVEL
  000992  (+04)  1403                                            =X'1403'           INFO. BYTES 28-29
  000994  (+06)  0000                                            =X'0000'           INFO. BYTES 30-31
  000996  (+08)  A0C874CC2400                                    =X'A0C874CC2400'   INFO. BYTES 1-6
  00099C  (+14)  001000084001                                    =X'001000084001'   INFO. BYTES 7-12
  0009A2  (+20)  050000020800                                    =X'050000020800'   INFO. BYTES 13-18
  0009A8  (+26)  0000000009                                      =X'0000000009'     INFO. BYTES 19-23
  0009AD  (+31)  00                                              =X'00'             COBOL SIGNATURE LEVEL
  0009AE  (+32)  00000005                                        =X'00000005'       # DATA DIVISION STATEMENTS
  0009B2  (+36)  0000000A                                        =X'0000000A'       # PROCEDURE DIVISION STATEMENTS
  0009B6  (+40)  00008008                                        =X'00008008'       INFO. BYTES 24-27
  0009BA  (+44)  D7F2F0F0F5F1F240                                =C'P200512 '       BUILD LEVEL INFO
  0009C2  (+52)  00000000                                        =X'00000000'       INFO. BYTES 32-35
                     Compiler Options and Program Information Section End



                     PPA2:  Entry Point Constants
  0009C8  04002203                                               =F'67117571'       Flags
  0009CC  FFFFF638                                               =A(CEESTART-PPA2)
  0009D0  00000058                                               =F'88'             A(PPA4-PPA2)
  0009D4  FFFFFFB0                                               =A(TIMESTMP-PPA2)
  0009D8  FFFFF638                                               =A(PrimaryEntryPoint-PPA2)
  0009DC  02400000                                               =F'37748736'       Flags
1PP 5655-EC6 IBM Enterprise COBOL for z/OS  6.3.0 P200512       TABLES00  Date 07/29/2020  Time 17:22:23   Page    19
0                    PPA2  End


                     PARMCEE:  LE Initialization Constants
  0009E0  00000006                                               =F'6'              Number Of Entries In Parm List
  0009E4  00000024                                               =X'24'             A(Primary Entry Point Info Block)
  0009E8  00000000                                               =X'0'              V(CEESTART)
  0009EC  00000000                                               =X'0'              V(CEEBETBL)
  0009F0  00000004                                               =X'4'              CEL Member Identifier
  0009F4  00000000                                               =X'0'              For CEL Member Use
                     PARMCEE  End


                     Base Locator Table
  0009F8  01                                                     =X'1'              Table Version
  0009F9  00                                                     =X'0'              Reserved
  0009FA  0008                                                   =H'8'              Header length
  0009FC  00000009                                               =F'9'              Array byte length
  000A00  2A00                                                   =X'2A00'           Flags & info (element  1)
  000A02  00000004                                               =X'4'              Offset to cells
  000A06  03                                                     =X'03'             Cell count
  000A07  0000                                                   =X'0'              Flags & info (end of array)
                     Base Locator Table End


                     Special Register Table
  000A10  01                                                     =X'1'              Table Version
  000A11  00                                                     =X'0'              Reserved
  000A12  0008                                                   =H'8'              Header length
  000A14  00000006                                               =F'6'              Array byte length
  000A18  13                                                     =X'13'             Flags & info (element  1)
  000A19  00000008                                               =X'8'              Offset to cells
  000A1D  00                                                     =X'0'              Flags & info (end of array)
                     Special Register Table End


                     PPA4:  Entry Point Constants
  000A20  22000000                                               =F'570425344'      Flags 1
  000A24  00020100                                               =F'131328'         Flags 2
  000A28  00000000                                               =F'0'              A(NORENTstatic)
  000A2C  00000000                                               =F'0'              Q(RENTstatic)
  000A30  00000084                                               =F'132'            A(DATA31_address_cell-RENTstatic)
  000A34  FFFFF5E0                                               =F'-2592'          A(Code-PPA4)
  000A38  00000A70                                               =F'2672'           Code Length
  000A3C  00000000                                               =F'0'              Length NORENTstatic
  000A40  00000088                                               =F'136'            Length RENTstatic
  000A44  000000E9                                               =F'233'            Length DATA31
  000A48  003F                                                   =X'3F'             A(CUName-PPA4)
  000A4A  0000                                                   =X'0'              PPA4 Minor Ver
  000A4C  0000000000000000                                       =X'0'              Reserved
  000A54  00000098                                               =X'98'             Offset UsrWrkStrg
  000A58  00000051                                               =X'51'             Length UsrWrkStrg
  000A5C  00                                                     =X'0'              Has Externals
  000A5D  0000                                                   =X'0'              A(SYSDEBUGName-PPA4)
                     PPA4  End



1PP 5655-EC6 IBM Enterprise COBOL for z/OS  6.3.0 P200512       TABLES00  Date 07/29/2020  Time 17:22:23   Page    20
0

                     E X T E R N A L    S Y M B O L    D I C T I O N A R Y

                      TYPE   ID   ADDR   LENGTH        NAME

                       SD     1  000000  000000        TABLES00
                       ED     2  000000  000000        C_CEESG003
                       ED     3  000000  000A70        C_CODE
                       LD     4  000000  000000        TABLES00#C
                       ER     5  000000  000000        CEESTART
                       ER     6  000000  000000        CEEBETBL
                       ED     7  000000  000000        C_WSA
                       PR     8  000000  000088        TABLES00#S
                       ED     9  000000  000458        D_INFO
                       LD    10  000000  000000
                       ED    11  000000  000220        D_LINE
                       LD    12  000000  000000
                       ED    13  000000  0001C8        D_ABREV
                       LD    14  000000  000000
                       ED    15  000000  000020        D_ARNGE
                       LD    16  000000  000000
                       ED    17  000000  00001F        D_PBNMS
                       LD    18  000000  000000
                       ED    19  000000  000048        D_PPA
                       LD    20  000000  000000
                       ED    21  000000  000098        D_SRCF
                       LD    22  000000  000000
                       ED    23  000000  0001E3        D_SRCTXT
                       LD    24  000000  000000
                       ED    25  000000  000037        D_SRCATR
                       LD    26  000000  000000
                       ED    27  000000  000140        D_XREF
                       LD    28  000000  000000
                       ED    29  000000  000022        B_IDRL
                       LD    30  000000  000000        TABLES00#D_SRCF
                       ER    31  000000  000000        IGZXBST4
                       ER    32  000000  000000        TABLES00
                       ER    33  000000  000000        IGZXPRS
                       ER    34  000000  000000        IGZXCMSG
                       ER    35  000000  000000        IGZXDSP
                       ER    36  000000  000000        IGZXRTN
                       ER    37  000000  000000        IGZXTREN
                       ER    38  000000  000000        IGZXRT1
                       LD    39  000000  000000        TABLES00
                       ER    40  000000  000000        CEESG004
                       ER    41  000000  000000        IGZXBS61
                       ED    42  000000  000000        C_@@PPA2
                       PR    43  000000  000008
                       ED    44  000000  000000        C_@@CSINIT
                       PR    45  000000  000004


                     * * * * *   I N I T I A L   H E A P     S T O R A G E     M A P   * * * * *

  OFFSET (HEX)   LENGTH (HEX)   NAME

            0              4       WS-DW-ITER
1PP 5655-EC6 IBM Enterprise COBOL for z/OS  6.3.0 P200512       TABLES00  Date 07/29/2020  Time 17:22:23   Page    21
0           4              C       BLT_Ptrs
           10             74       GPCB
           84              4       WS-BASE-ADDRESS


                     * * * * *   E N D     O F     I N I T I A L   H E A P     S T O R A G E     M A P   * * * * *

                     * * * * *   B E L O W    T H E    B A R    H E A P    M A P   * * * * *

  OFFSET (HEX)   LENGTH (HEX)   NAME

            0              4       JNIENVPTR
            8              2       RETURN-CODE
           10              2       SORT-RETURN
           18              8       SORT-CONTROL
           20              4       SORT-CORE-SIZE
           28              4       SORT-FILE-SIZE
           30              4       SORT-MODE-SIZE
           38              8       SORT-MESSAGE
           40              4       TALLY
           48              1       SHIFT-OUT
           50              1       SHIFT-IN
           58              4       XML-CODE
           60             1E       XML-EVENT
           80              4       XML-INFORMATION
           88              4       JSON-CODE
           90              4       JSON-STATUS
           98             3F       WEEK-DAY-VALUES
           D8              1       WEEKEND-DAY-ITER
           E0              9       WEEKEND-SEARCH


                     * * * * *   E N D     O F     B E L O W    T H E    B A R    H E A P    M A P   * * * * *

                     * * * * *   S T A C K     S T O R A G E    M A P   * * * * *

  OFFSET (HEX)   LENGTH (HEX)   NAME

  Block name: TABLES00

           80              4       _@CAA
           D8              4       _CACHED_$WORKING-STORAGE-31
           DC              4       _CACHED_$STATIC
           E0              4       _CACHED_CRENT
           E4              4       TS2=13
           E8              4       TS2=12
           EC              4       TS2=11
           F0              4       Subscr-AddrTemp
           F4              4       Subscr-AddrTemp
           F8              2       TS2=8
           FA              1       TS2=7
           FC              4       Subscr-AddrTemp
          100              4       Subscr-Temp
          104              2       _returnValue
          108             24       _ArgumentList
          130             44       COBDSACB
          178             18       VLC_cells
          190             10       _VTS_2
1PP 5655-EC6 IBM Enterprise COBOL for z/OS  6.3.0 P200512       TABLES00  Date 07/29/2020  Time 17:22:23   Page    22
0         1A0             10       _VTS_1


  OFFSET (HEX)   LENGTH (HEX)   NAME

  Block name: #SRVal000000001

           80              4       _@CAA
           84              4       _@ParentDSA
           DC              4       _CACHED_$WORKING-STORAGE-31
           E0              4       _CACHED_$STATIC
           E4              4       _CACHED_CRENT


  OFFSET (HEX)   LENGTH (HEX)   NAME

  Block name: #WSVal000000001

           80              4       _@CAA
           84              4       _@ParentDSA
           DC              4       _CACHED_$WORKING-STORAGE-31
           E0              4       _CACHED_$STATIC
           E4              4       _CACHED_CRENT


  OFFSET (HEX)   LENGTH (HEX)   NAME

  Block name: __COMPUNITsinit

            C              4       __CAACRENT
           80              4       _@MYARGS
           84              4       _@CAA
           DC              4       _CACHED_$STATIC
           E0              4       _CACHED_CRENT


                     * * * * *   E N D     O F     S T A C K     S T O R A G E    M A P   * * * * *



            Compiler back end level: tr_v63_cobol_ptf_20200511_1211_HFY8I5OiEeqh3MMBS86UjA



            * * * * *   E N D   O F   C O M P I L A T I O N   * * * * *

-* Statistics for COBOL program TABLES00:
 *    Source records = 39
 *    Data Division statements = 5
 *    Procedure Division statements = 10
 *    Generated COBOL statements = 0
 *    Program complexity factor = 10
0End of compilation 1,  program TABLES00,  no statements flagged.
0Return code 0
