//Z80643G JOB ,
// MSGCLASS=H,MSGLEVEL=(1,1),TIME=(,4),REGION=144M,COND=(16,LT)
//*
// SET COBPGM='HOSPEDIT'
//**** Compile JCL ******
//STP0000 EXEC PROC=ELAXFCOC,
// CICS=,
// DB2=,
// COMP=
//COBOL.SYSPRINT DD SYSOUT=*
//SYSLIN DD DISP=SHR,
//        DSN=&SYSUID..COBOBJS.OBJ(&COBPGM.)
//COBOL.SYSLIB DD DISP=SHR,
//        DSN=&SYSUID..LEARN.COPYLIB
//COBOL.SYSXMLSD DD DUMMY
//COBOL.SYSIN DD DISP=SHR,
//        DSN=&SYSUID..LEARN.COBOL(&COBPGM.)
//****Link/Edit Step ******
//LKED EXEC PROC=ELAXFLNK
//LINK.SYSLIB DD DSN=CEE.SCEELKED,
//        DISP=SHR
//        DD DSN=&SYSUID..LEARN.LOAD,
//        DISP=SHR
//LINK.OBJ0000 DD DISP=SHR,
//        DSN=&SYSUID..COBOBJS.OBJ(&COBPGM.)
//LINK.SYSLIN DD *
     INCLUDE OBJ0000
/*
//LINK.SYSLMOD   DD  DISP=SHR,
//        DSN=&SYSUID..LEARN.LOAD(&COBPGM.)
//*
//** Go (Run) Step. Add //DD cards when needed ******
//GO    EXEC   PGM=&COBPGM.
//STEPLIB   DD DSN=&SYSUID..LEARN.LOAD,DISP=SHR
//SYSOUT    DD SYSOUT=*,OUTLIM=15000
//PRTLINE   DD SYSOUT=*,OUTLIM=15000
//*PRTDONE   DD DISP=(NEW,CATLG),DSN=&SYSUID..LEARN.COBRUN.OUTPUT,
//*            UNIT=SYSALLDA,SPACE=(TRK,1)
//CEEDUMP   DD DUMMY
//SYSUDUMP   DD DUMMY
//******* ADDITIONAL RUNTIME JCL HERE ******
//******* ADDITIONAL RUNTIME JCL HERE ******
//PAYROLL  DD DSN=&SYSUID..LEARN.PAYROL01,DISP=SHR
//PAYCHECK DD SYSOUT=*
//ACCTREC  DD DSN=&SYSUID..LEARN.ACCT.DATA,DISP=SHR
//INFILE   DD DSN=&SYSUID..LEARN.ACCT.DATA,DISP=SHR
//OUTFILE  DD DSN=&SYSUID..LEARN.OUTFILE,DISP=SHR
//INVALS   DD DSN=&SYSUID..LEARN.INVALS,DISP=SHR
//FAVIN    DD DSN=&SYSUID..LEARN.FAVIN,DISP=SHR
//*FAVOUT   DD DSN=&SYSUID..LEARN.FAVOUT,DISP=SHR
//FAVOUT   DD SYSOUT=*
//PRTLINE  DD SYSOUT=*
//B37      DD DSN=&SYSUID..LEARN.B37,DISP=SHR
//*CLAIM    DD DSN=&SYSUID..LEARN.INSCLAIM,DISP=SHR
//CLAIM    DD DSN=&SYSUID..LEARN.DATA.CLAIMS,DISP=SHR
//*RFPIN    DD DSN=&SYSUID..LEARN.FAVRFP,DISP=SHR
//PROPOSAL DD SYSOUT=*
//CLAIMRPT DD SYSOUT=*
//CLAIMERR DD SYSOUT=*
//INFILE1  DD DSN=&SYSUID..LEARN.ACCTEMP,DISP=SHR
//RPFIN    DD DSN=&SYSUID..LEARN.FAVRFP,DISP=SHR
//* 11111111111111111111111111111111111111111111111111111111111111111111111
//* 22222222222222222222222222222222222222222222222222222222222222222222222
//* 33333333333333333333333333333333333333333333333333333333333333333333333
//* 44444444444444444444444444444444444444444444444444444444444444444444444
//RPFERR    DD SYSOUT=*
//EMPFILE   DD DSN=&SYSUID..LEARN.EMPFILE,DISP=SHR
//EMPROJ    DD DSN=&SYSUID..LEARN.EMP.PROJ,DISP=SHR
//PHONEOUT  DD SYSOUT=*
//HOSPIN    DD DSN=&SYSUID..LEARN.HOSPIN.DATA2,DISP=SHR
//INSFILE   DD DSN=&SYSUID..LEARN.HOSPIN.TYPE,DISP=SHR
//RPTFILE   DD DSN=&SYSUID..LEARN.HOSPRPT,DISP=SHR
//*OUTFILE   DD DSN=&SYSUID..LEARN.HOSPOUT,DISP=SHR
//ERRFILE   DD DSN=&SYSUID..LEARN.HOSPERR,DISP=SHR
//HOSPOUT   DD DSN=&SYSUID..LEARN.HOSPRPT,DISP=SHR
